<?xml version="1.0" encoding="UTF-8" standalone="no"?>
<!-- Created with Inkscape (http://www.inkscape.org/) -->

<svg
   xmlns:dc="http://purl.org/dc/elements/1.1/"
   xmlns:cc="http://creativecommons.org/ns#"
   xmlns:rdf="http://www.w3.org/1999/02/22-rdf-syntax-ns#"
   xmlns:svg="http://www.w3.org/2000/svg"
   xmlns="http://www.w3.org/2000/svg"
   xmlns:sodipodi="http://sodipodi.sourceforge.net/DTD/sodipodi-0.dtd"
   xmlns:inkscape="http://www.inkscape.org/namespaces/inkscape"
   width="44mm"
   height="27.638533mm"
   viewBox="0 0 44 27.638533"
   version="1.1"
   id="svg8"
   inkscape:version="0.92.3 (2405546, 2018-03-11)"
   sodipodi:docname="insigne-forbid-outline-white.svg">
  <defs
     id="defs2" />
  <sodipodi:namedview
     id="base"
     pagecolor="#000000"
     bordercolor="#666666"
     borderopacity="1.0"
     inkscape:pageopacity="0"
     inkscape:pageshadow="2"
     inkscape:zoom="4.2025416"
     inkscape:cx="98.010604"
     inkscape:cy="33.442099"
     inkscape:document-units="mm"
     inkscape:current-layer="svg8"
     showgrid="false"
     inkscape:window-width="1920"
     inkscape:window-height="1064"
     inkscape:window-x="0"
     inkscape:window-y="16"
     inkscape:window-maximized="0"
     inkscape:snap-grids="false"
     inkscape:snap-to-guides="true"
     inkscape:snap-global="true"
     showborder="true"
     showguides="true"
     inkscape:guide-bbox="true"
     borderlayer="false"
     inkscape:showpageshadow="false"
     fit-margin-top="2"
     fit-margin-left="2"
     fit-margin-right="2"
     fit-margin-bottom="2"
     inkscape:snap-object-midpoints="false"
     inkscape:snap-text-baseline="false"
     inkscape:snap-center="false"
     inkscape:snap-bbox="true"
     inkscape:snap-bbox-midpoints="true"
     inkscape:snap-others="true"
     inkscape:bbox-paths="true"
     inkscape:bbox-nodes="true"
     inkscape:snap-bbox-edge-midpoints="true"
     inkscape:lockguides="true">
    <sodipodi:guide
       position="12.269736,12.307907"
       orientation="1,0"
       id="guide408"
       inkscape:locked="true" />
    <sodipodi:guide
       position="12.269736,12.307907"
       orientation="0,1"
       id="guide410"
       inkscape:locked="true" />
    <sodipodi:guide
       position="27.355222,13.756309"
       orientation="1,0"
       inkscape:locked="true"
       id="guide418" />
    <sodipodi:guide
       position="27.355222,13.756309"
       orientation="0,1"
       id="guide422"
       inkscape:locked="true" />
    <sodipodi:guide
       position="2.0000043,12.141675"
       orientation="1,0"
       id="guide34"
       inkscape:locked="true" />
  </sodipodi:namedview>
  <metadata
     id="metadata5">
    <rdf:RDF>
      <cc:Work
         rdf:about="">
        <dc:format>image/svg+xml</dc:format>
        <dc:type
           rdf:resource="http://purl.org/dc/dcmitype/StillImage" />
        <dc:title></dc:title>
      </cc:Work>
    </rdf:RDF>
  </metadata>
  <g
     inkscape:label="Embleme"
     inkscape:groupmode="layer"
     id="layer1"
     transform="translate(-73.867971,-37.007517)">
    <g
       transform="translate(389.39515,26.692742)"
       id="embleme"
       inkscape:label="embleme"
       style="fill:none;stroke:#ffffff;stroke-opacity:1;stroke-width:0.1;stroke-miterlimit:4;stroke-dasharray:none">
      <title
         id="title4042">Emblême</title>
      <g
         inkscape:label="volcan"
         id="volcan"
         transform="matrix(1.0299842,0,0,1.0299842,13.153598,-2.9627034)"
         style="fill:none;stroke:#ffffff;stroke-opacity:1;stroke-width:0.09708887;stroke-miterlimit:4;stroke-dasharray:none">
        <title
           id="title336">Volcan et son onde</title>
        <path
           style="fill:none;stroke-width:0.09708887;stroke:#ffffff;stroke-opacity:1;stroke-miterlimit:4;stroke-dasharray:none"
           d="m -301.20016,14.549965 c -1.25437,0.0032 -2.50853,0.0824 -3.75287,0.233423 0.5482,0.04049 1.09758,0.0012 1.64611,-0.0085 0.68878,0.0077 -0.34908,0.09345 -0.57686,0.145659 0.68365,0.0526 1.3664,-0.04039 2.0497,-0.05172 1.71433,0.09801 3.44351,0.12602 5.13711,0.439238 0.47763,0.07779 1.38519,0.259369 1.1776,0.922147 -0.47531,0.491201 -1.22338,0.314453 -1.80349,0.569648 -1.26822,0.300189 -2.59009,0.269559 -3.88739,0.306552 -1.31763,0.07491 -2.63521,-0.01168 -3.94859,-0.116612 -0.6374,0.0376 -1.24238,-0.12565 -1.86345,-0.180671 -0.60901,0.437687 0.51522,0.652544 0.86735,0.659876 0.68526,0.142805 1.44761,0.03588 2.06102,0.431001 0.51293,0.512739 1.30254,0.320761 1.76519,0.825314 0.49052,0.54259 1.18502,-0.05994 1.68997,0.285753 0.40377,0.594338 1.17351,0.313536 1.66175,0.770715 0.43815,0.457638 1.14427,-0.108917 1.49778,0.466225 0.40174,0.560805 1.18342,0.31712 1.7217,0.123811 0.92659,-0.242019 -0.004,-1.155092 -0.58551,-0.77752 -0.54011,0.205627 -0.11525,-0.197766 0.16688,-0.241449 -0.17441,-0.292163 -1.20708,0.02567 -1.70708,-0.12856 0.6058,-0.309705 1.29478,-0.375422 1.93041,-0.60054 0.61101,-0.333758 -0.38498,-0.440463 -0.63475,-0.245999 0.26732,-0.533053 1.19264,-0.197893 1.38425,-0.835196 0.21134,0.486768 0.26359,1.020162 0.39432,1.530104 0.27481,0.627491 1.80343,7.793988 2.75387,11.679282 0.30096,1.230301 0.5124,2.488769 0.93369,3.68323 0.21999,0.62376 0.40771,1.835698 0.82696,1.803705 0.64157,0.0807 0.29823,-0.844071 0.45756,-1.175759 0.0363,-0.214782 0.076,-0.913759 0.17657,-0.368366 0.22649,0.931894 0.31197,1.884715 0.60385,2.805586 -0.0471,0.308936 0.37224,1.07806 0.59354,0.445211 0.15842,-0.589172 0.1178,-1.201191 0.21653,-1.79877 -0.0149,-0.894794 0.20187,-1.782069 0.18294,-2.678669 0.0289,-0.619602 -0.0731,-1.226673 0.0575,-1.838334 0.0643,-0.701055 0.32654,-1.982255 0.29086,-2.68443 0.0405,0.960248 0.23638,1.970821 0.39535,2.650045 0.21033,0.944835 0.43092,1.803374 0.75197,2.729141 0.13929,0.322267 0.34731,1.445868 0.9271,0.861377 0.11397,-0.350948 0.48717,-0.395464 0.79894,-0.319959 0.40496,0.01495 0.7732,-0.66114 0.81563,-0.124015 0.21079,0.368736 0.1094,0.917295 0.61024,1.210367 0.26625,-0.512968 0.0459,-1.093807 0.17923,-1.629006 0.0762,-0.477981 0.18867,0.447678 0.22498,0.630015 0.0909,0.925261 0.0922,1.859296 0.24619,2.779207 0.32767,0.640161 0.60405,-0.315068 0.52288,-0.608168 0.10194,-1.459539 0.0966,-2.935299 0.29759,-4.383994 -0.0572,-0.993282 0.21194,-1.109822 0.18317,-0.393112 -0.0215,0.586114 0.1546,1.166203 0.11649,1.74758 0.0859,0.749673 0.0394,1.507583 0.18604,2.253237 -0.11673,0.269527 0.26553,1.088027 0.52391,0.56986 0.1495,-1.094697 0.30302,-2.190163 0.43408,-3.286849 0.27698,0.518032 0.1806,1.111361 0.40936,1.637031 0.6716,0.525312 0.58316,-0.706006 0.61559,-1.044105 -0.0452,-0.192148 -0.0411,-2.435522 0.31335,-0.68069 0.16831,0.440494 0.2185,0.65628 0.45098,0.646492 0.55082,-0.143805 0.91012,-2.115742 0.77707,-2.483993 -0.40807,0.166219 -0.71086,3.434821 -1.02532,1.398474 -0.29357,-0.490472 -0.20136,-0.795453 -0.6022,-0.753205 -0.44206,0.318543 -0.15306,0.955332 -0.24207,1.400108 0.0238,0.210782 0.0275,1.969964 -0.16955,0.566754 -0.0102,-0.530144 -0.34714,-1.005119 -0.33869,-1.5229 0.0978,-0.427613 -0.56268,-0.46201 -0.4858,-0.01814 -0.0326,0.516745 -0.0243,1.034064 -0.12691,1.547615 -0.0827,0.487804 -0.11101,1.336089 -0.16461,1.824926 -0.28562,0.343229 -0.1583,-1.005044 -0.24455,-1.270109 -0.0809,-0.383471 0.0111,-0.768853 -0.0587,-1.15475 -0.0573,-0.316824 -0.0885,-0.81798 -0.1373,-1.349002 -0.0956,-0.447011 -0.0537,-0.67272 -0.12167,-1.143785 -0.0386,-0.267609 0.26422,-1.384021 -0.23349,-1.055751 0.0583,0.52619 -0.0282,1.061846 -0.1967,1.557554 -0.14062,0.620242 -0.17522,1.234119 -0.20229,1.86964 0.008,0.673368 -0.1004,1.342525 -0.1234,2.013436 -0.0202,0.285498 -0.0931,0.868773 -0.1541,0.95861 -0.13292,-0.830273 -0.10929,-1.680352 -0.30244,-2.501901 -0.17324,-0.303686 -0.12782,-1.171856 -0.61806,-1.055444 -0.18341,0.407136 0.0439,0.858032 -0.0867,1.282683 0.12339,1.416099 -0.1207,0.740867 -0.24085,0.224976 0.11712,-0.41116 -0.55516,-1.067958 -0.70417,-0.352503 -0.036,0.663049 -1.01156,0.08306 -1.23982,0.647114 -0.21752,0.423362 -0.49559,-0.633707 -0.58366,-0.891254 -0.22421,-0.416813 -0.35688,-0.876259 -0.46746,-1.329443 -0.44229,-1.919081 -0.34785,-1.431237 -0.53751,-2.800844 -0.0588,-0.628755 -0.1935,-1.050211 -0.13618,-1.463364 0.0469,-0.338251 -0.0837,-0.513117 -0.1986,-0.521841 -0.34711,0.509656 -0.34601,0.917727 -0.36342,1.477775 -0.0211,0.680159 -0.18092,1.43821 -0.25485,2.111934 -0.008,0.509278 -0.0725,1.014835 -0.0464,1.521645 -0.10743,0.992755 -0.12549,1.993624 -0.21797,2.986878 -0.11011,0.37072 0.0979,0.904742 -0.24043,1.167309 -0.20189,-0.446694 -0.2045,-0.919289 -0.3319,-1.38342 -0.23132,-0.786109 -0.21803,-1.615715 -0.53688,-2.384269 -0.53198,-0.483552 -0.44371,0.560036 -0.4483,0.824492 2e-5,1.777747 -0.51439,1.16773 -0.6298,0.498975 -0.11484,-0.665374 -0.34297,-1.309491 -0.51618,-1.963777 -0.23635,-0.892729 -0.50547,-1.777237 -0.71376,-2.676919 -0.92734,-4.005509 -2.26253,-11.22593 -2.38324,-12.101939 -0.26448,-0.601427 -0.26171,-1.296956 -0.61271,-1.864061 -0.2282,-0.593034 -0.80377,-0.97702 -1.40876,-1.108187 -1.59196,-0.253453 -3.20502,-0.374315 -4.81778,-0.370009 z m 0.89474,0.04779 c 0.0744,-0.0024 -0.0989,0.07535 -0.18645,0.07891 0.0333,0.03692 1.37252,0.0024 2.03836,0.185415 -1.23531,-0.09486 -2.47522,-0.06014 -3.71185,-0.102192 0.12569,-0.172326 -0.50216,-0.05102 -0.79957,-0.08447 0.82588,-0.12081 1.66051,-0.0058 2.49016,-0.04285 0.0922,-0.02432 0.14454,-0.03401 0.16935,-0.0348 z"
           id="path4950-5"
           inkscape:connector-curvature="0"
           sodipodi:nodetypes="sccccccccccccccccccccccccaaccccccccccccccccccccccccccccccccccccccccccccccccccccccccscscccccccsaaccccscccccscc" />
      </g>
    </g>
  </g>
  <g
     inkscape:groupmode="layer"
     id="layer2"
     inkscape:label="Logotype">
    <g
       transform="translate(57.626882,-99.484855)"
       id="logotype"
       inkscape:label="Logotype"
       style="fill:none;stroke:#ffffff;stroke-opacity:1;stroke-width:0.1;stroke-miterlimit:4;stroke-dasharray:none">
      <g
         transform="matrix(0.39867316,0,0,0.39867316,129.00102,305.6694)"
         id="groupe_logotype"
         style="fill:none;stroke:#ffffff;stroke-opacity:1;stroke-width:0.25083204;stroke-miterlimit:4;stroke-dasharray:none">
        <text
           xml:space="preserve"
           style="font-style:normal;font-variant:normal;font-weight:bold;font-stretch:normal;font-size:8.98930931px;line-height:1.25;font-family:'Nimbus Sans L';-inkscape-font-specification:'Nimbus Sans L Bold';letter-spacing:0px;word-spacing:0px;fill:none;fill-opacity:1;stroke:#ffffff;stroke-width:0.25083204;stroke-opacity:1;stroke-miterlimit:4;stroke-dasharray:none"
           x="-432.90787"
           y="-472.55273"
           id="t_mic"><tspan
             sodipodi:role="line"
             x="-432.90787"
             y="-472.55273"
             style="font-style:normal;font-variant:normal;font-weight:bold;font-stretch:normal;line-height:0;font-family:'Nimbus Sans L';-inkscape-font-specification:'Nimbus Sans L Bold';fill:none;stroke-width:0.25083204;stroke:#ffffff;stroke-opacity:1;stroke-miterlimit:4;stroke-dasharray:none"
             id="tspan4934">mic</tspan></text>
        <text
           id="t_6"
           y="-472.93286"
           x="-563.33484"
           style="font-style:normal;font-variant:normal;font-weight:bold;font-stretch:normal;font-size:10.53357697px;line-height:1.25;font-family:'Nimbus Sans L';-inkscape-font-specification:'Nimbus Sans L Bold';letter-spacing:0px;word-spacing:0px;fill:none;fill-opacity:1;stroke:#ffffff;stroke-width:0.25083204;stroke-opacity:1;stroke-miterlimit:4;stroke-dasharray:none"
           xml:space="preserve"
           transform="skewX(-14.242904)"><tspan
             id="tspan4940"
             style="font-style:normal;font-variant:normal;font-weight:bold;font-stretch:normal;line-height:0;font-family:'Nimbus Sans L';-inkscape-font-specification:'Nimbus Sans L Bold';fill:none;stroke-width:0.25083204;stroke:#ffffff;stroke-opacity:1;stroke-miterlimit:4;stroke-dasharray:none"
             y="-472.93286"
             x="-563.33484"
             sodipodi:role="line"><tspan
               id="tspan4938"
               style="font-style:normal;font-variant:normal;font-weight:bold;font-stretch:normal;font-size:16.85372162px;line-height:0;font-family:'Nimbus Sans L';-inkscape-font-specification:'Nimbus Sans L Bold';fill:none;stroke-width:0.25083204;stroke:#ffffff;stroke-opacity:1;stroke-miterlimit:4;stroke-dasharray:none">6</tspan></tspan></text>
        <text
           xml:space="preserve"
           style="font-style:normal;font-variant:normal;font-weight:bold;font-stretch:normal;font-size:8.98930931px;line-height:1.25;font-family:'Nimbus Sans L';-inkscape-font-specification:'Nimbus Sans L Bold';letter-spacing:0px;word-spacing:0px;fill:none;fill-opacity:1;stroke:#ffffff;stroke-width:0.25083204;stroke-opacity:1;stroke-miterlimit:4;stroke-dasharray:none"
           x="-463.47098"
           y="-478.62988"
           id="t_radio"><tspan
             sodipodi:role="line"
             x="-463.47098"
             y="-478.62988"
             style="font-style:normal;font-variant:normal;font-weight:bold;font-stretch:normal;line-height:0;font-family:'Nimbus Sans L';-inkscape-font-specification:'Nimbus Sans L Bold';fill:none;stroke-width:0.25083204;stroke:#ffffff;stroke-opacity:1;stroke-miterlimit:4;stroke-dasharray:none"
             id="tspan4944">radio</tspan></text>
        <text
           xml:space="preserve"
           style="font-style:normal;font-variant:normal;font-weight:bold;font-stretch:normal;font-size:3.54005718px;line-height:1.25;font-family:'Nimbus Sans L';-inkscape-font-specification:'Nimbus Sans L Bold';letter-spacing:0px;word-spacing:0px;fill:none;fill-opacity:1;stroke:#ffffff;stroke-width:0.25083204;stroke-opacity:1;stroke-miterlimit:4;stroke-dasharray:none"
           x="-417.96967"
           y="-472.34387"
           id="t_dotnet"><tspan
             sodipodi:role="line"
             x="-417.96967"
             y="-472.34387"
             style="font-style:normal;font-variant:normal;font-weight:bold;font-stretch:normal;line-height:0;font-family:'Nimbus Sans L';-inkscape-font-specification:'Nimbus Sans L Bold';fill:none;stroke-width:0.25083204;stroke:#ffffff;stroke-opacity:1;stroke-miterlimit:4;stroke-dasharray:none"
             id="tspan4999">.net</tspan></text>
      </g>
    </g>
  </g>
</svg>
