<?xml version="1.0" encoding="UTF-8" standalone="no"?>
<!-- Created with Inkscape (http://www.inkscape.org/) -->

<svg
   xmlns:dc="http://purl.org/dc/elements/1.1/"
   xmlns:cc="http://creativecommons.org/ns#"
   xmlns:rdf="http://www.w3.org/1999/02/22-rdf-syntax-ns#"
   xmlns:svg="http://www.w3.org/2000/svg"
   xmlns="http://www.w3.org/2000/svg"
   xmlns:sodipodi="http://sodipodi.sourceforge.net/DTD/sodipodi-0.dtd"
   xmlns:inkscape="http://www.inkscape.org/namespaces/inkscape"
   width="24.378988mm"
   height="9.1511116mm"
   viewBox="0 0 24.378988 9.1511116"
   version="1.1"
   id="svg81"
   inkscape:version="0.92.3 (2405546, 2018-03-11)"
   sodipodi:docname="logotype-forbid-outline-black.svg">
  <defs
     id="defs75" />
  <sodipodi:namedview
     id="base"
     pagecolor="#ffffff"
     bordercolor="#666666"
     borderopacity="1.0"
     inkscape:pageopacity="0"
     inkscape:pageshadow="2"
     inkscape:zoom="9.528868"
     inkscape:cx="23.091882"
     inkscape:cy="16.95642"
     inkscape:document-units="mm"
     inkscape:current-layer="logotype"
     showgrid="false"
     fit-margin-top="2"
     fit-margin-left="2"
     fit-margin-right="2"
     fit-margin-bottom="2"
     inkscape:window-width="1920"
     inkscape:window-height="1064"
     inkscape:window-x="0"
     inkscape:window-y="16"
     inkscape:window-maximized="0"
     showguides="true"
     inkscape:guide-bbox="true"
     inkscape:snap-object-midpoints="true"
     inkscape:snap-center="true"
     inkscape:snap-text-baseline="true"
     inkscape:snap-global="true">
    <sodipodi:guide
       position="1.7742207,4.5385196"
       orientation="1,0"
       id="guide373"
       inkscape:locked="false" />
    <sodipodi:guide
       position="9.8208149,2.2672701"
       orientation="1,0"
       id="guide375"
       inkscape:locked="false" />
    <sodipodi:guide
       position="13.958912,2.1157237"
       orientation="1,0"
       id="guide377"
       inkscape:locked="false" />
    <sodipodi:guide
       position="19.914372,2.0324559"
       orientation="1,0"
       id="guide379"
       inkscape:locked="false" />
    <sodipodi:guide
       position="1.7742207,4.5385196"
       orientation="0,1"
       id="guide381"
       inkscape:locked="false" />
    <sodipodi:guide
       position="9.8208149,2.2672701"
       orientation="0,1"
       id="guide383"
       inkscape:locked="false" />
    <sodipodi:guide
       position="13.958912,2.1157237"
       orientation="0,1"
       id="guide385"
       inkscape:locked="false" />
    <sodipodi:guide
       position="19.914372,2.0324559"
       orientation="0,1"
       id="guide387"
       inkscape:locked="false" />
    <sodipodi:guide
       position="10.579035,4.5385193"
       orientation="1,0"
       id="guide155"
       inkscape:locked="false" />
  </sodipodi:namedview>
  <metadata
     id="metadata78">
    <rdf:RDF>
      <cc:Work
         rdf:about="">
        <dc:format>image/svg+xml</dc:format>
        <dc:type
           rdf:resource="http://purl.org/dc/dcmitype/StillImage" />
        <dc:title />
      </cc:Work>
    </rdf:RDF>
  </metadata>
  <g
     inkscape:label="Logotype"
     inkscape:groupmode="layer"
     id="logotype"
     transform="translate(57.54664,-110.23992)">
    <g
       id="groupe_logotype"
       transform="matrix(0.39867316,0,0,0.39867316,129.00102,305.6694)"
       style="stroke:#000006;stroke-opacity:1;fill:none;stroke-width:0.25083204;stroke-miterlimit:4;stroke-dasharray:none">
      <text
         id="t_mic"
         y="-472.55273"
         x="-432.90787"
         style="font-style:normal;font-variant:normal;font-weight:bold;font-stretch:normal;font-size:8.98930931px;line-height:1.25;font-family:'Nimbus Sans L';-inkscape-font-specification:'Nimbus Sans L Bold';letter-spacing:0px;word-spacing:0px;fill:none;fill-opacity:1;stroke:#000006;stroke-width:0.25083204;stroke-opacity:1;stroke-miterlimit:4;stroke-dasharray:none"
         xml:space="preserve"><tspan
           id="tspan4934"
           style="font-style:normal;font-variant:normal;font-weight:bold;font-stretch:normal;line-height:0;font-family:'Nimbus Sans L';-inkscape-font-specification:'Nimbus Sans L Bold';fill:none;stroke-width:0.25083204;stroke:#000006;stroke-opacity:1;stroke-miterlimit:4;stroke-dasharray:none"
           y="-472.55273"
           x="-432.90787"
           sodipodi:role="line">mic</tspan></text>
      <text
         transform="skewX(-14.242904)"
         xml:space="preserve"
         style="font-style:normal;font-variant:normal;font-weight:bold;font-stretch:normal;font-size:10.53357697px;line-height:1.25;font-family:'Nimbus Sans L';-inkscape-font-specification:'Nimbus Sans L Bold';letter-spacing:0px;word-spacing:0px;fill:none;fill-opacity:1;stroke:#000006;stroke-width:0.25083204;stroke-opacity:1;stroke-miterlimit:4;stroke-dasharray:none"
         x="-563.33484"
         y="-472.93286"
         id="t_6"><tspan
           sodipodi:role="line"
           x="-563.33484"
           y="-472.93286"
           style="font-style:normal;font-variant:normal;font-weight:bold;font-stretch:normal;line-height:0;font-family:'Nimbus Sans L';-inkscape-font-specification:'Nimbus Sans L Bold';fill:none;stroke-width:0.25083204;stroke:#000006;stroke-opacity:1;stroke-miterlimit:4;stroke-dasharray:none"
           id="tspan4940"><tspan
             style="font-style:normal;font-variant:normal;font-weight:bold;font-stretch:normal;font-size:16.85372162px;line-height:0;font-family:'Nimbus Sans L';-inkscape-font-specification:'Nimbus Sans L Bold';fill:none;stroke-width:0.25083204;stroke:#000006;stroke-opacity:1;stroke-miterlimit:4;stroke-dasharray:none"
             id="tspan4938">6</tspan></tspan></text>
      <text
         id="t_radio"
         y="-478.62988"
         x="-441.38568"
         style="font-style:normal;font-variant:normal;font-weight:bold;font-stretch:normal;font-size:8.98930931px;line-height:1.25;font-family:'Nimbus Sans L';-inkscape-font-specification:'Nimbus Sans L Bold';text-align:end;letter-spacing:0px;word-spacing:0px;text-anchor:end;fill:none;fill-opacity:1;stroke:#000006;stroke-width:0.25083204;stroke-opacity:1;stroke-miterlimit:4;stroke-dasharray:none"
         xml:space="preserve"><tspan
           id="tspan4944"
           style="font-style:normal;font-variant:normal;font-weight:bold;font-stretch:normal;line-height:0;font-family:'Nimbus Sans L';-inkscape-font-specification:'Nimbus Sans L Bold';text-align:end;text-anchor:end;fill:none;stroke-width:0.25083204;stroke:#000006;stroke-opacity:1;stroke-miterlimit:4;stroke-dasharray:none"
           y="-478.62988"
           x="-441.38568"
           sodipodi:role="line">radio</tspan></text>
      <text
         id="t_dotnet"
         y="-472.34387"
         x="-417.96967"
         style="font-style:normal;font-variant:normal;font-weight:bold;font-stretch:normal;font-size:3.54005718px;line-height:1.25;font-family:'Nimbus Sans L';-inkscape-font-specification:'Nimbus Sans L Bold';letter-spacing:0px;word-spacing:0px;fill:none;fill-opacity:1;stroke:#000006;stroke-width:0.25083204;stroke-opacity:1;stroke-miterlimit:4;stroke-dasharray:none"
         xml:space="preserve"><tspan
           id="tspan4999"
           style="font-style:normal;font-variant:normal;font-weight:bold;font-stretch:normal;line-height:0;font-family:'Nimbus Sans L';-inkscape-font-specification:'Nimbus Sans L Bold';fill:none;stroke-width:0.25083204;stroke:#000006;stroke-opacity:1;stroke-miterlimit:4;stroke-dasharray:none"
           y="-472.34387"
           x="-417.96967"
           sodipodi:role="line">.net</tspan></text>
    </g>
  </g>
</svg>
